# .PCD v0.7 - Point Cloud Data file format
VERSION 0.7
FIELDS x y z
SIZE 4 4 4
TYPE F F F
COUNT 1 1 1
WIDTH 100
HEIGHT 1
VIEWPOINT 0 0 0 1 0 0 0
POINTS 100
DATA ascii
20.002659 -4.6284261 5.7412171
20.003544 -0.39409411 1.0739681
20.241959 -7.8735728 4.9697762
19.931524 -3.0479636 9.6451492
19.775648 -7.2071228 9.1823874
20.146475 -2.5499196 8.7967443
20.186956 -8.7940187 8.3519621
20.113766 -1.1154033 5.1282039
19.80064 -0.86006957 1.1478992
20.076183 -1.585495 0.97532052
20.149574 -4.953825 5.1012878
20.043678 -7.2305431 7.7207851
19.851782 -4.1720047 4.6226726
20.214012 -2.5088842 0.0076234168
20.064861 -0.31314689 8.062439
19.845707 -4.1012959 3.7279077
19.891272 -4.3664031 8.3151541
20.1749 -9.4042444 4.0293932
20.231144 -6.3186426 0.4240537
19.824301 -5.3447065 8.315794
19.897318 -3.5549862 7.7691603
20.146965 -4.6881471 0.80211973
19.933437 -2.315774 6.6167698
19.875769 -9.9212523 8.9022169
20.182383 -6.3533258 6.2858911
19.827803 -9.3083458 6.4094281
20.143803 -0.43031168 3.4116406
19.90733 -7.6833057 8.7732134
19.801796 -3.228399 6.7670016
20.043434 -6.26472 7.937428
20.154476 -6.8432274 4.7856584
20.059891 -7.2295227 8.6320705
19.810863 -6.3567996 4.7327881
20.022167 -0.75284243 6.8767934
19.936722 -9.4301376 7.2241406
20.120367 -5.3056402 3.5979543
19.765865 -7.1310539 7.8777909
19.86672 -0.96831155 4.4097643
20.203474 -8.064393 4.7344956
19.976898 -4.2841487 2.335711
19.756817 -4.2181878 6.0414386
19.752201 -5.5417533 0.46035281
20.17186 -2.6515667 0.068644337
20.249609 -7.038177 2.9505084
19.886002 -5.2996597 7.8891044
19.806906 -1.9775714 9.6446695
19.971088 -8.8812008 2.8227146
20.11867 -5.2550621 8.6226254
19.916611 -3.5986376 0.68281978
19.999437 -7.6398492 2.321568
19.829096 -0.023318071 8.0618343
20.105358 -0.66803265 2.0869095
20.017118 -8.3262501 4.9910417
19.896233 -8.0601969 7.4727068
20.080759 -4.9520645 2.8094599
20.048355 -5.2311206 0.25747162
20.188105 -7.9556231 5.9324765
19.797956 -2.4412239 0.30245352
19.765398 -8.7106962 1.3278869
19.848394 -9.5114241 5.8756728
20.011578 -9.6035242 9.8727112
19.947847 -1.4163209 8.0453768
20.10528 -7.2077718 1.7839056
20.184223 -4.4995389 1.7153231
19.751562 -3.129137 6.2510862
20.208494 -3.5417097 3.6036656
19.912876 -8.8991947 6.9709616
20.156332 -6.4527402 9.8540316
20.165625 -2.7001841 2.4495025
19.991812 -9.7120686 0.81299305
20.203724 -8.6153078 9.5989599
19.91334 -3.8802931 0.26744214
20.035177 -6.0703974 0.55054051
20.082436 -1.696665 3.9529865
19.961933 -6.1420679 1.041947
20.141459 -3.9901378 6.8825378
19.833342 -6.2767992 2.2856617
19.89526 -8.2963724 5.1781602
19.794418 -8.747014 7.2371793
19.868544 -1.6874406 8.3988152
20.130539 -4.2074409 4.0622425
19.899479 -1.5808969 6.702951
19.829071 -1.520469 8.7614727
20.245378 -4.2937393 9.456398
20.202606 -8.0473537 5.6667705
19.942047 -0.81986964 1.4944627
20.1975 -8.7287741 3.5516069
20.003908 -8.8236637 4.4417396
19.884287 -2.4376676 3.2861681
19.987185 -4.6277704 4.4148641
19.914936 -4.9787245 6.6241808
20.151815 -9.8641214 0.2001787
20.222675 -6.0802884 4.4983125
19.948051 -3.8403995 9.7327585
20.098795 -5.5144024 0.13754116
19.773626 -3.6268685 5.5718436
20.194244 -5.6009912 3.3351443
19.772043 -2.09396 3.2459025
19.935246 -6.9791946 8.312871
19.750305 -6.7330065 2.7855577
